…
sum_of_day %>% 
  filter(sum<100)
```

    ## # A tibble: 0 x 4
    ## # Groups:   day_num, week [0]
    ## # ... with 4 variables: day_num <dbl>, week <int>, day <fct>, sum <int>

``` r
motion_data %>% 
  filter(day_num==14)
```

    ## # A tibble: 1,440 x 7
    ##    day_num  week day      minute  hour minute_in_hour value
    ##      <dbl> <int> <fct>     <int> <int>          <int> <int>
    ##  1      14     2 Saturday      1     0              1     1
    ##  2      14     2 Saturday      2     0              2     1
    ##  3      14     2 Saturday      3     0              3     1
    ##  4      14     2 Saturday      4     0              4     1
    ##  5      14     2 Saturday      5     0              5     1
    ##  6      14     2 Saturday      6     0              6     1
    ##  7      14     2 Saturday      7     0              7     1
    ##  8      14     2 Saturday      8     0              8     1
    ##  9      14     2 Saturday      9     0              9     1
    ## 10      14     2 Saturday     10     0             10     1
    ## # ... with 1,430 more rows
…
``` r
sum_of_week = 
  motion_data %>% 
  group_by(week) %>% 
  summarize(
    sum = sum(value)
  )

sum_of_week
```

    ## # A tibble: 47 x 2
    ##     week     sum
    ##    <int>   <int>
    ##  1     1 2077807
    ##  2     2 1648150
    ##  3     3   11214
    ##  4     4  538812
    ##  5     5 1958367
    ##  6     6 2312073
    ##  7     7 2274164
    ##  8     8 2107621
    ##  9     9 2647174
    ## 10    10 2482858
    ## # ... with 37 more rows
…
